Về quy ước đặt tên dữ liệu – Le Khac Tuan
…
Data Wrangling

Tương tự, với việc sử dụng một bộ từ điển có hệ thống, lớp lang cũng support chúng ta trong việc biến đổi dữ liệu. Ví dụ chúng ta có thể tận dụng “select helpers” trong gói dplyr:

library(dplyr)
trip_data <- as.data.frame(trip_data)
trip_data %>%
  filter(if_any(everything(), ~ !is.na(.))) %>% 
  group_by(CAT_TRAVELER_NATIONALITY) %>%
  summarize(
    across(starts_with("DT_"), c(min,max))
  )

# A tibble: 42 × 5
   CAT_TRAVELER_NATIONALITY DT_START_1 DT_START_2 DT_END_1   DT_END_2 
   <chr>                    <chr>      <chr>      <chr>      <chr>    
 1 American                 1/1/2023   9/15/2022  1/1/2023   9/22/2022
 2 Australian               11/20/2023 9/5/2022   11/30/2023 9/14/2022
 3 Brazil                   4/3/2024   4/3/2024   4/10/2024  4/10/2024
 4 Brazilian                1/15/2024  8/1/2023   1/12/2024  8/10/2023
 5 British                  1/1/2025   8/20/2022  1/15/2023  9/2/2022 
 6 Cambodia                 9/10/2022  9/10/2022  9/15/2022  9/15/2022
 7 Canada                   7/1/2022   9/1/2022   7/10/2022  9/10/2022
 8 Canadian                 1/2/2023   8/15/2023  1/9/2023   8/22/2023
 9 China                    5/8/2023   5/8/2023   5/14/2023  5/14/2023
10 Chinese                  11/11/2022 9/1/2023   11/21/2022 9/8/2023 
# ℹ 32 more rows
…
